<?xml version="1.0" encoding="UTF-8" standalone="no"?>
<svg
   xmlns:dc="http://purl.org/dc/elements/1.1/"
   xmlns:cc="http://creativecommons.org/ns#"
   xmlns:rdf="http://www.w3.org/1999/02/22-rdf-syntax-ns#"
   xmlns:svg="http://www.w3.org/2000/svg"
   xmlns="http://www.w3.org/2000/svg"
   xmlns:sodipodi="http://sodipodi.sourceforge.net/DTD/sodipodi-0.dtd"
   xmlns:inkscape="http://www.inkscape.org/namespaces/inkscape"
   viewBox="0 0 32 40"
   x="0px"
   y="0px"
   version="1.1"
   id="svg20"
   sodipodi:docname="diagram.svg"
   inkscape:version="0.92.3 (2405546, 2018-03-11)">
  <metadata
     id="metadata26">
    <rdf:RDF>
      <cc:Work
         rdf:about="">
        <dc:format>image/svg+xml</dc:format>
        <dc:type
           rdf:resource="http://purl.org/dc/dcmitype/StillImage" />
      </cc:Work>
    </rdf:RDF>
  </metadata>
  <defs
     id="defs24" />
  <sodipodi:namedview
     pagecolor="#ffffff"
     bordercolor="#666666"
     borderopacity="1"
     objecttolerance="10"
     gridtolerance="10"
     guidetolerance="10"
     inkscape:pageopacity="0"
     inkscape:pageshadow="2"
     inkscape:window-width="1439"
     inkscape:window-height="751"
     id="namedview22"
     showgrid="false"
     inkscape:zoom="5.9"
     inkscape:cx="16"
     inkscape:cy="20"
     inkscape:window-x="0"
     inkscape:window-y="0"
     inkscape:window-maximized="0"
     inkscape:current-layer="svg20" />
  <title
     id="title2">diagram, graph, statistics, char, business</title>
  <g
     data-name="Layer 2"
     id="g14">
    <rect
       x="12.02"
       y="2.54"
       width="7.96"
       height="7.52"
       id="rect4" />
    <rect
       x="1"
       y="21.94"
       width="7.96"
       height="7.52"
       id="rect6" />
    <rect
       x="12.02"
       y="21.94"
       width="7.96"
       height="7.52"
       id="rect8" />
    <rect
       x="23.04"
       y="21.94"
       width="7.96"
       height="7.52"
       id="rect10" />
    <polygon
       points="5.98 20.94 5.98 17 15 17 15 20.94 17 20.94 17 17 26.02 17 26.02 20.94 28.02 20.94 28.02 15 17 15 17 11.06 15 11.06 15 15 3.98 15 3.98 20.94 5.98 20.94"
       id="polygon12" />
  </g>
</svg>
