<?xml version="1.0" encoding="UTF-8" standalone="no"?>
<svg
   xmlns:i="http://ns.adobe.com/AdobeIllustrator/10.0/"
   xmlns:dc="http://purl.org/dc/elements/1.1/"
   xmlns:cc="http://creativecommons.org/ns#"
   xmlns:rdf="http://www.w3.org/1999/02/22-rdf-syntax-ns#"
   xmlns:svg="http://www.w3.org/2000/svg"
   xmlns="http://www.w3.org/2000/svg"
   xmlns:sodipodi="http://sodipodi.sourceforge.net/DTD/sodipodi-0.dtd"
   xmlns:inkscape="http://www.inkscape.org/namespaces/inkscape"
   version="1.1"
   x="0px"
   y="0px"
   viewBox="0 0 100 125"
   style="enable-background:new 0 0 100 100;"
   xml:space="preserve"
   id="svg78"
   sodipodi:docname="groups.svg"
   inkscape:version="0.92.3 (2405546, 2018-03-11)"><metadata
     id="metadata84"><rdf:RDF><cc:Work
         rdf:about=""><dc:format>image/svg+xml</dc:format><dc:type
           rdf:resource="http://purl.org/dc/dcmitype/StillImage" /></cc:Work></rdf:RDF></metadata><defs
     id="defs82" /><sodipodi:namedview
     pagecolor="#ffffff"
     bordercolor="#666666"
     borderopacity="1"
     objecttolerance="10"
     gridtolerance="10"
     guidetolerance="10"
     inkscape:pageopacity="0"
     inkscape:pageshadow="2"
     inkscape:window-width="852"
     inkscape:window-height="480"
     id="namedview80"
     showgrid="false"
     inkscape:zoom="1.888"
     inkscape:cx="50"
     inkscape:cy="62.5"
     inkscape:window-x="0"
     inkscape:window-y="0"
     inkscape:window-maximized="0"
     inkscape:current-layer="svg78" /><switch
     id="switch72"><foreignObject
       requiredExtensions="http://ns.adobe.com/AdobeIllustrator/10.0/"
       x="0"
       y="0"
       width="1"
       height="1" /><g
       i:extraneous="self"
       id="g70"><g
         id="g10"><path
           d="M5273.1,2400.1v-2c0-2.8-5-4-9.7-4s-9.7,1.3-9.7,4v2c0,1.8,0.7,3.6,2,4.9l5,4.9c0.3,0.3,0.4,0.6,0.4,1v6.4     c0,0.4,0.2,0.7,0.6,0.8l2.9,0.9c0.5,0.1,1-0.2,1-0.8v-7.2c0-0.4,0.2-0.7,0.4-1l5.1-5C5272.4,2403.7,5273.1,2401.9,5273.1,2400.1z      M5263.4,2400c-4.8,0-7.4-1.3-7.5-1.8v0c0.1-0.5,2.7-1.8,7.5-1.8c4.8,0,7.3,1.3,7.5,1.8C5270.7,2398.7,5268.2,2400,5263.4,2400z"
           id="path2" /><path
           d="M5268.4,2410.3c-0.6,0-1,0.4-1,1c0,0.6,0.4,1,1,1h4.3c0.6,0,1-0.4,1-1c0-0.6-0.4-1-1-1H5268.4z"
           id="path4" /><path
           d="M5272.7,2413.7h-4.3c-0.6,0-1,0.4-1,1c0,0.6,0.4,1,1,1h4.3c0.6,0,1-0.4,1-1C5273.7,2414.1,5273.3,2413.7,5272.7,2413.7z"
           id="path6" /><path
           d="M5272.7,2417h-4.3c-0.6,0-1,0.4-1,1c0,0.6,0.4,1,1,1h4.3c0.6,0,1-0.4,1-1C5273.7,2417.5,5273.3,2417,5272.7,2417z"
           id="path8" /></g><g
         id="g68"><path
           d="M38.1,11.8h-3c-2.2,0-4,1.6-4.3,3.8l-0.4,3.5c-0.1,0.5,0.2,0.9,0.7,1c0.6,0.1,1.3,0.2,2,0.3l0.5,8.3     c0,0.7,0.6,1.2,1.2,1.2h3.8c0.7,0,1.2-0.5,1.2-1.2l0.5-8.3c0.7-0.1,1.3-0.2,2-0.3c0.5-0.1,0.7-0.5,0.7-1l-0.4-3.5     C42.1,13.4,40.3,11.8,38.1,11.8z"
           id="path12" /><circle
           cx="36.6"
           cy="6.6"
           r="4.1"
           id="circle14" /><path
           d="M65,11.8h-3c-2.2,0-4,1.6-4.3,3.8l-0.4,3.5c-0.1,0.5,0.2,0.9,0.7,1c0.6,0.1,1.3,0.2,2,0.3l0.5,8.3c0,0.7,0.6,1.2,1.2,1.2     h3.8c0.7,0,1.2-0.5,1.2-1.2l0.5-8.3c0.7-0.1,1.3-0.2,2-0.3c0.5-0.1,0.7-0.5,0.7-1l-0.4-3.5C69,13.4,67.2,11.8,65,11.8z"
           id="path16" /><circle
           cx="63.4"
           cy="6.6"
           r="4.1"
           id="circle18" /><path
           d="M24.6,28.7h-3c-2.2,0-4,1.6-4.3,3.8l-0.4,3.5c-0.1,0.5,0.2,0.9,0.7,1c0.6,0.1,1.3,0.2,2,0.3l0.5,8.3     c0,0.7,0.6,1.2,1.2,1.2H25c0.7,0,1.2-0.5,1.2-1.2l0.5-8.3c0.7-0.1,1.3-0.2,2-0.3c0.5-0.1,0.7-0.5,0.7-1L29,32.5     C28.7,30.3,26.8,28.7,24.6,28.7z"
           id="path20" /><circle
           cx="23.1"
           cy="23.5"
           r="4.1"
           id="circle22" /><path
           d="M51.5,28.7h-3c-2.2,0-4,1.6-4.3,3.8l-0.4,3.5c-0.1,0.5,0.2,0.9,0.7,1c0.6,0.1,1.3,0.2,2,0.3l0.5,8.3     c0,0.7,0.6,1.2,1.2,1.2h3.8c0.7,0,1.2-0.5,1.2-1.2l0.5-8.3c0.7-0.1,1.3-0.2,2-0.3c0.5-0.1,0.7-0.5,0.7-1l-0.4-3.5     C55.6,30.3,53.7,28.7,51.5,28.7z"
           id="path24" /><circle
           cx="50"
           cy="23.5"
           r="4.1"
           id="circle26" /><path
           d="M78.4,28.7h-3c-2.2,0-4,1.6-4.3,3.8l-0.4,3.5c-0.1,0.5,0.2,0.9,0.7,1c0.6,0.1,1.3,0.2,2,0.3l0.5,8.3     c0,0.7,0.6,1.2,1.2,1.2h3.8c0.7,0,1.2-0.5,1.2-1.2l0.5-8.3c0.7-0.1,1.3-0.2,2-0.3c0.5-0.1,0.7-0.5,0.7-1l-0.4-3.5     C82.5,30.3,80.6,28.7,78.4,28.7z"
           id="path28" /><circle
           cx="76.9"
           cy="23.5"
           r="4.1"
           id="circle30" /><path
           d="M11.2,45.6h-3c-2.2,0-4,1.6-4.3,3.8L3.4,53c-0.1,0.5,0.2,0.9,0.7,1c0.6,0.1,1.3,0.2,2,0.3l0.5,8.3c0,0.7,0.6,1.2,1.2,1.2     h3.8c0.7,0,1.2-0.5,1.2-1.2l0.5-8.3c0.7-0.1,1.3-0.2,2-0.3c0.5-0.1,0.7-0.5,0.7-1l-0.4-3.5C15.3,47.2,13.4,45.6,11.2,45.6z"
           id="path32" /><circle
           cx="9.7"
           cy="40.4"
           r="4.1"
           id="circle34" /><path
           d="M38.1,45.6h-3c-2.2,0-4,1.6-4.3,3.8L30.3,53c-0.1,0.5,0.2,0.9,0.7,1c0.6,0.1,1.3,0.2,2,0.3l0.5,8.3     c0,0.7,0.6,1.2,1.2,1.2h3.8c0.7,0,1.2-0.5,1.2-1.2l0.5-8.3c0.7-0.1,1.3-0.2,2-0.3c0.5-0.1,0.7-0.5,0.7-1l-0.4-3.5     C42.1,47.2,40.3,45.6,38.1,45.6z"
           id="path36" /><circle
           cx="36.6"
           cy="40.4"
           r="4.1"
           id="circle38" /><path
           d="M65,45.6h-3c-2.2,0-4,1.6-4.3,3.8L57.2,53c-0.1,0.5,0.2,0.9,0.7,1c0.6,0.1,1.3,0.2,2,0.3l0.5,8.3c0,0.7,0.6,1.2,1.2,1.2     h3.8c0.7,0,1.2-0.5,1.2-1.2l0.5-8.3c0.7-0.1,1.3-0.2,2-0.3c0.5-0.1,0.7-0.5,0.7-1l-0.4-3.5C69,47.2,67.2,45.6,65,45.6z"
           id="path40" /><circle
           cx="63.4"
           cy="40.4"
           r="4.1"
           id="circle42" /><path
           d="M96.1,49.4c-0.3-2.2-2.1-3.8-4.3-3.8h-3c-2.2,0-4,1.6-4.3,3.8L84.1,53c-0.1,0.5,0.2,0.9,0.7,1c0.6,0.1,1.3,0.2,2,0.3     l0.5,8.3c0,0.7,0.6,1.2,1.2,1.2h3.8c0.7,0,1.2-0.5,1.2-1.2l0.5-8.3c0.7-0.1,1.3-0.2,2-0.3c0.5-0.1,0.7-0.5,0.7-1L96.1,49.4z"
           id="path44" /><circle
           cx="90.3"
           cy="40.4"
           r="4.1"
           id="circle46" /><path
           d="M24.6,62.5h-3c-2.2,0-4,1.6-4.3,3.8l-0.4,3.5c-0.1,0.5,0.2,0.9,0.7,1c0.6,0.1,1.3,0.2,2,0.3l0.5,8.3     c0,0.7,0.6,1.2,1.2,1.2H25c0.7,0,1.2-0.5,1.2-1.2l0.5-8.3c0.7-0.1,1.3-0.2,2-0.3c0.5-0.1,0.7-0.5,0.7-1L29,66.3     C28.7,64.1,26.8,62.5,24.6,62.5z"
           id="path48" /><circle
           cx="23.1"
           cy="57.3"
           r="4.1"
           id="circle50" /><path
           d="M51.5,62.5h-3c-2.2,0-4,1.6-4.3,3.8l-0.4,3.5c-0.1,0.5,0.2,0.9,0.7,1c0.6,0.1,1.3,0.2,2,0.3l0.5,8.3     c0,0.7,0.6,1.2,1.2,1.2h3.8c0.7,0,1.2-0.5,1.2-1.2l0.5-8.3c0.7-0.1,1.3-0.2,2-0.3c0.5-0.1,0.7-0.5,0.7-1l-0.4-3.5     C55.6,64.1,53.7,62.5,51.5,62.5z"
           id="path52" /><circle
           cx="50"
           cy="57.3"
           r="4.1"
           id="circle54" /><path
           d="M78.4,62.5h-3c-2.2,0-4,1.6-4.3,3.8l-0.4,3.5c-0.1,0.5,0.2,0.9,0.7,1c0.6,0.1,1.3,0.2,2,0.3l0.5,8.3     c0,0.7,0.6,1.2,1.2,1.2h3.8c0.7,0,1.2-0.5,1.2-1.2l0.5-8.3c0.7-0.1,1.3-0.2,2-0.3c0.5-0.1,0.7-0.5,0.7-1l-0.4-3.5     C82.5,64.1,80.6,62.5,78.4,62.5z"
           id="path56" /><circle
           cx="76.9"
           cy="57.3"
           r="4.1"
           id="circle58" /><path
           d="M38.1,79.4h-3c-2.2,0-4,1.6-4.3,3.8l-0.4,3.5c-0.1,0.5,0.2,0.9,0.7,1c0.6,0.1,1.3,0.2,2,0.3l0.5,8.3     c0,0.7,0.6,1.2,1.2,1.2h3.8c0.7,0,1.2-0.5,1.2-1.2l0.5-8.3c0.7-0.1,1.3-0.2,2-0.3c0.5-0.1,0.7-0.5,0.7-1l-0.4-3.5     C42.1,81,40.3,79.4,38.1,79.4z"
           id="path60" /><circle
           cx="36.6"
           cy="74.2"
           r="4.1"
           id="circle62" /><path
           d="M65,79.4h-3c-2.2,0-4,1.6-4.3,3.8l-0.4,3.5c-0.1,0.5,0.2,0.9,0.7,1c0.6,0.1,1.3,0.2,2,0.3l0.5,8.3c0,0.7,0.6,1.2,1.2,1.2     h3.8c0.7,0,1.2-0.5,1.2-1.2l0.5-8.3c0.7-0.1,1.3-0.2,2-0.3c0.5-0.1,0.7-0.5,0.7-1l-0.4-3.5C69,81,67.2,79.4,65,79.4z"
           id="path64" /><circle
           cx="63.4"
           cy="74.2"
           r="4.1"
           id="circle66" /></g></g></switch></svg>