<?xml version="1.0" encoding="UTF-8" standalone="no"?>
<svg
   xmlns:dc="http://purl.org/dc/elements/1.1/"
   xmlns:cc="http://creativecommons.org/ns#"
   xmlns:rdf="http://www.w3.org/1999/02/22-rdf-syntax-ns#"
   xmlns:svg="http://www.w3.org/2000/svg"
   xmlns="http://www.w3.org/2000/svg"
   xmlns:sodipodi="http://sodipodi.sourceforge.net/DTD/sodipodi-0.dtd"
   xmlns:inkscape="http://www.inkscape.org/namespaces/inkscape"
   version="1.1"
   x="0px"
   y="0px"
   viewBox="0 0 70 87.5"
   style="enable-background:new 0 0 70 70;"
   xml:space="preserve"
   id="svg30"
   sodipodi:docname="im.svg"
   inkscape:version="0.92.3 (2405546, 2018-03-11)"><metadata
     id="metadata36"><rdf:RDF><cc:Work
         rdf:about=""><dc:format>image/svg+xml</dc:format><dc:type
           rdf:resource="http://purl.org/dc/dcmitype/StillImage" /></cc:Work></rdf:RDF></metadata><defs
     id="defs34" /><sodipodi:namedview
     pagecolor="#ffffff"
     bordercolor="#666666"
     borderopacity="1"
     objecttolerance="10"
     gridtolerance="10"
     guidetolerance="10"
     inkscape:pageopacity="0"
     inkscape:pageshadow="2"
     inkscape:window-width="640"
     inkscape:window-height="480"
     id="namedview32"
     showgrid="false"
     inkscape:zoom="2.6971429"
     inkscape:cx="35"
     inkscape:cy="43.75"
     inkscape:window-x="0"
     inkscape:window-y="0"
     inkscape:window-maximized="0"
     inkscape:current-layer="svg30" /><g
     id="g24"><path
       d="M34.7881,54.25659H13.48451c-0.58368,0-1.05597,0.47284-1.05597,1.05603s0.47229,1.05597,1.05597,1.05597H34.7881   c0.58368,0,1.05597-0.47278,1.05597-1.05597S35.37178,54.25659,34.7881,54.25659z"
       id="path2" /><path
       d="M13.48451,29.83734H34.7881c0.58368,0,1.05597-0.47284,1.05597-1.05597c0-0.58319-0.47229-1.05603-1.05597-1.05603   H13.48451c-0.58368,0-1.05597,0.47284-1.05597,1.05603C12.42854,29.3645,12.90083,29.83734,13.48451,29.83734z"
       id="path4" /><path
       d="M35.21223,40.99103h21.30353c0.58368,0,1.05603-0.47284,1.05603-1.05603c0-0.58313-0.47235-1.05597-1.05603-1.05597   H35.21223c-0.58374,0-1.05603,0.47284-1.05603,1.05597C34.1562,40.51819,34.62849,40.99103,35.21223,40.99103z"
       id="path6" /><path
       d="M34.7881,58.48059H13.48451c-0.58368,0-1.05597,0.47284-1.05597,1.05603s0.47229,1.05597,1.05597,1.05597H34.7881   c0.58368,0,1.05597-0.47278,1.05597-1.05597S35.37178,58.48059,34.7881,58.48059z"
       id="path8" /><path
       d="M13.48451,25.61334H34.7881c0.58368,0,1.05597-0.47284,1.05597-1.05597c0-0.58319-0.47229-1.05603-1.05597-1.05603   H13.48451c-0.58368,0-1.05597,0.47284-1.05597,1.05603C12.42854,25.1405,12.90083,25.61334,13.48451,25.61334z"
       id="path10" /><path
       d="M63.78077,6.75684C63.78077,4.68555,62.0962,3,60.02491,3H9.97316C7.90187,3,6.2173,4.68555,6.2173,6.75684v8.33545   h57.56348V6.75684z M11.53199,11.03308c-1.09723,0-1.98669-0.88959-1.98669-1.98688c0-1.09735,0.88947-1.98688,1.98669-1.98688   s1.98676,0.88953,1.98676,1.98688C13.51875,10.14349,12.62922,11.03308,11.53199,11.03308z M17.30714,11.03308   c-1.09729,0-1.98676-0.88959-1.98676-1.98688c0-1.09735,0.88947-1.98688,1.98676-1.98688   c1.09723,0,1.98669,0.88953,1.98669,1.98688C19.29383,10.14349,18.40437,11.03308,17.30714,11.03308z M23.08223,11.03308   c-1.09723,0-1.98669-0.88959-1.98669-1.98688c0-1.09735,0.88947-1.98688,1.98669-1.98688s1.98669,0.88953,1.98669,1.98688   C25.06892,10.14349,24.17945,11.03308,23.08223,11.03308z M60.02485,9.50909c0,0.65674-0.53235,1.18921-1.18909,1.18921H33.12629   c-0.65668,0-1.18909-0.53247-1.18909-1.18921v-0.9259c0-0.6568,0.53241-1.18921,1.18909-1.18921h25.70947   c0.65674,0,1.18909,0.53241,1.18909,1.18921V9.50909z"
       id="path12" /><path
       d="M35.21223,45.21503h21.30353c0.58368,0,1.05603-0.47284,1.05603-1.05603c0-0.58313-0.47235-1.05597-1.05603-1.05597   H35.21223c-0.58374,0-1.05603,0.47284-1.05603,1.05597C34.1562,44.74219,34.62849,45.21503,35.21223,45.21503z"
       id="path14" /><path
       d="M16.0102,42.62549c1.22418,0,2.21661-0.99243,2.21661-2.21661c0-1.22412-0.99243-2.21661-2.21661-2.21661   c-1.22412,0-2.21655,0.99249-2.21655,2.21661C13.79365,41.63306,14.78608,42.62549,16.0102,42.62549z"
       id="path16" /><path
       d="M53.98591,22.77045c-1.19495,0-2.21002,0.96899-2.21002,2.22003c0,1.21997,0.98999,2.21002,2.21002,2.21002   c1.22998,0,2.21997-0.99005,2.21997-2.21002C56.20588,23.73322,55.18708,22.77045,53.98591,22.77045z"
       id="path18" /><path
       d="M53.98591,54.42047c-1.20874,0-2.21002,0.99084-2.21002,2.22003c0,1.21997,0.98999,2.21997,2.21002,2.21997   c1.22998,0,2.21997-1,2.21997-2.21997C56.20588,55.40717,55.20338,54.42047,53.98591,54.42047z"
       id="path20" /><path
       d="M6.21337,17.09229v46.15088C6.21337,65.31445,7.89894,67,9.97023,67h50.06055c2.07129,0,3.75586-1.68555,3.75586-3.75684   V17.09229H6.21337z M10.09986,21.9375c0-0.58313,0.47278-1.05597,1.05603-1.05597h25.95648   c0.58319,0,1.05603,0.47284,1.05603,1.05597v0.96411c0,0.41577,0.24396,0.79291,0.62323,0.96332l4.09644,1.84021   c0.83112,0.37329,0.83112,1.55328,0,1.92657l-4.09644,1.84021c-0.37927,0.17041-0.62323,0.54749-0.62323,0.96332v0.96399   c0,0.58325-0.47284,1.05603-1.05603,1.05603H11.15589c-0.58325,0-1.05603-0.47278-1.05603-1.05603V21.9375z M31.20863,44.84955   l-4.09644-1.84021c-0.83105-0.37329-0.83105-1.55322,0-1.92657l4.09644-1.84015c0.37933-0.17041,0.62329-0.54755,0.62329-0.96332   v-0.96411c0-0.58319,0.47278-1.05603,1.05597-1.05603h25.95648c0.58325,0,1.05603,0.47284,1.05603,1.05603v9.46173   c0,0.58325-0.47278,1.05597-1.05603,1.05597H32.88789c-0.58319,0-1.05597-0.47272-1.05597-1.05597v-0.96405   C31.83192,45.39709,31.58796,45.01996,31.20863,44.84955z M9.81007,42.04987c0-3.42145,2.78375-6.2052,6.20563-6.2052   c3.41742,0,6.19767,2.78375,6.19767,6.2052c0,1.6286-0.63395,3.0968-1.65385,4.19775   c-1.01105-1.36572-2.71204-2.32391-4.54401-2.32391c-1.83942,0-3.54865,0.94257-4.55811,2.31677   C10.44313,45.14441,9.81007,43.68274,9.81007,42.04987z M42.88807,58.38696l-4.09644,1.84021   c-0.37927,0.17041-0.62323,0.54755-0.62323,0.96332v0.96405c0,0.58319-0.47284,1.05597-1.05603,1.05597H11.15589   c-0.58325,0-1.05603-0.47278-1.05603-1.05597v-9.46173c0-0.58319,0.47278-1.05603,1.05603-1.05603h25.95648   c0.58319,0,1.05603,0.47284,1.05603,1.05603v0.96405c0,0.41583,0.24396,0.79291,0.62323,0.96332l4.09644,1.84021   C43.71919,56.83374,43.71919,58.01367,42.88807,58.38696z M58.33339,61.84125c-1.01483-1.28003-2.5827-2.10388-4.34839-2.10388   c-1.76599,0-3.32733,0.8241-4.34143,2.10443c-1.13922-1.11719-1.85626-2.67267-1.85626-4.41547   c0-3.42157,2.78033-6.20544,6.198-6.20544c3.42108,0,6.20496,2.78387,6.20496,6.20544   C60.19026,59.16522,59.47438,60.72223,58.33339,61.84125z M58.65248,30.73773c-1.00586-1.39557-2.81213-2.46143-4.66895-2.46143   c-1.85724,0-3.6543,1.06415-4.65997,2.46008c-1.06293-1.22327-1.53625-2.61511-1.53625-4.06348   c0-3.42157,2.78033-6.20502,6.198-6.20502c3.42108,0,6.20496,2.78345,6.20496,6.20502   C60.19026,28.11072,59.72291,29.50476,58.65248,30.73773z"
       id="path22" /></g></svg>