<?xml version="1.0" encoding="UTF-8" standalone="no"?>
<svg
   xmlns:dc="http://purl.org/dc/elements/1.1/"
   xmlns:cc="http://creativecommons.org/ns#"
   xmlns:rdf="http://www.w3.org/1999/02/22-rdf-syntax-ns#"
   xmlns:svg="http://www.w3.org/2000/svg"
   xmlns="http://www.w3.org/2000/svg"
   xmlns:sodipodi="http://sodipodi.sourceforge.net/DTD/sodipodi-0.dtd"
   xmlns:inkscape="http://www.inkscape.org/namespaces/inkscape"
   version="1.1"
   x="0px"
   y="0px"
   viewBox="0 0 91 113.75"
   enable-background="new 0 0 91 91"
   xml:space="preserve"
   id="svg30"
   sodipodi:docname="password.svg"
   inkscape:version="0.92.3 (2405546, 2018-03-11)"><metadata
     id="metadata36"><rdf:RDF><cc:Work
         rdf:about=""><dc:format>image/svg+xml</dc:format><dc:type
           rdf:resource="http://purl.org/dc/dcmitype/StillImage" /></cc:Work></rdf:RDF></metadata><defs
     id="defs34" /><sodipodi:namedview
     pagecolor="#ffffff"
     bordercolor="#666666"
     borderopacity="1"
     objecttolerance="10"
     gridtolerance="10"
     guidetolerance="10"
     inkscape:pageopacity="0"
     inkscape:pageshadow="2"
     inkscape:window-width="640"
     inkscape:window-height="480"
     id="namedview32"
     showgrid="false"
     inkscape:zoom="2.0747253"
     inkscape:cx="45.5"
     inkscape:cy="56.875"
     inkscape:window-x="0"
     inkscape:window-y="0"
     inkscape:window-maximized="0"
     inkscape:current-layer="svg30" /><g
     id="g24"><g
       id="g22"><g
         id="g20"><g
           id="g18"><g
             id="g16"><g
               id="g14"><g
                 id="g12"><path
                   d="M23.816,48.448c-0.527-1.283-1.998-1.895-3.281-1.363l-1.307,0.539v-1.416c0-1.389-1.125-2.514-2.514-2.514         c-1.387,0-2.512,1.125-2.512,2.514v1.898l-1.836-0.492c-1.338-0.357-2.719,0.438-3.076,1.777         c-0.359,1.34,0.436,2.719,1.777,3.076l1.684,0.451l-0.939,1.469c-0.746,1.17-0.404,2.725,0.766,3.471         c0.418,0.268,0.887,0.395,1.35,0.395c0.828,0,1.641-0.41,2.119-1.16l0.941-1.473l1.117,1.336         c0.496,0.594,1.209,0.9,1.928,0.9c0.568,0,1.141-0.191,1.611-0.586c1.064-0.889,1.205-2.475,0.314-3.539l-1.119-1.336         l1.613-0.666C23.736,51.2,24.346,49.731,23.816,48.448z"
                   id="path2" /><path
                   d="M41.813,48.448c-0.527-1.283-1.998-1.895-3.279-1.363l-1.313,0.541v-1.418c0-1.389-1.125-2.514-2.514-2.514         c-1.387,0-2.512,1.125-2.512,2.514v1.896l-1.832-0.49c-1.336-0.357-2.717,0.438-3.076,1.777s0.436,2.717,1.775,3.076         l1.684,0.451l-0.938,1.471c-0.744,1.172-0.4,2.725,0.77,3.471c0.418,0.266,0.887,0.393,1.348,0.393         c0.83,0,1.643-0.41,2.121-1.162l0.938-1.469l1.117,1.336c0.496,0.592,1.209,0.898,1.928,0.898         c0.568,0,1.141-0.191,1.611-0.586c1.064-0.891,1.205-2.475,0.313-3.539l-1.119-1.336l1.615-0.666         C41.732,51.2,42.342,49.731,41.813,48.448z"
                   id="path4" /><path
                   d="M59.807,48.448c-0.529-1.283-1.998-1.895-3.281-1.363l-1.307,0.539v-1.416c0-1.389-1.125-2.514-2.514-2.514         c-1.387,0-2.512,1.125-2.512,2.514v1.898l-1.834-0.492c-1.336-0.357-2.715,0.438-3.074,1.777s0.436,2.719,1.773,3.076         l1.686,0.451l-0.938,1.471c-0.746,1.17-0.402,2.723,0.768,3.469c0.418,0.268,0.885,0.395,1.348,0.395         c0.83,0,1.643-0.41,2.121-1.162l0.938-1.469l1.117,1.334c0.496,0.594,1.209,0.9,1.928,0.9c0.568,0,1.141-0.191,1.611-0.586         c1.064-0.891,1.205-2.475,0.314-3.539l-1.119-1.336l1.611-0.666C59.727,51.2,60.336,49.731,59.807,48.448z"
                   id="path6" /><path
                   d="M90.482,46.552c0-4.547-3.699-8.246-8.246-8.246H71.949v-5.725c0-2.023,2.25-3.732,4.912-3.732h0.213         c2.66,0,4.908,1.709,4.908,3.732c0,1.389,1.125,2.514,2.512,2.514c1.389,0,2.514-1.125,2.514-2.514         c0-4.828-4.457-8.758-9.934-8.758h-0.213c-5.48,0-9.938,3.93-9.938,8.758v7.26c-2.1,1.496-3.475,3.943-3.475,6.711v10.541         c0,1.143,0.234,2.23,0.654,3.221H14.625c-4.902,0-8.891-3.988-8.891-8.891c0-4.904,3.988-8.893,8.891-8.893h42.854         c1.389,0,2.514-1.125,2.514-2.512c0-1.389-1.125-2.514-2.514-2.514H14.625c-7.674,0-13.916,6.244-13.916,13.918         S6.951,65.34,14.625,65.34h57.033c0.014,0,0.027,0.002,0.039,0.002h10.539c0.014,0,0.025-0.002,0.039-0.002h0.756         c0.332,0,0.646-0.066,0.936-0.184c3.717-0.797,6.516-4.108,6.516-8.063V46.552z M68.475,57.093V46.552         c0-1.775,1.445-3.221,3.223-3.221h10.539c1.775,0,3.221,1.445,3.221,3.221v10.541c0,1.771-1.436,3.211-3.201,3.221H71.678         C69.91,60.304,68.475,58.864,68.475,57.093z"
                   id="path8" /><path
                   d="M76.967,47.11c-1.387,0-2.512,1.125-2.512,2.512v4.07c0,1.387,1.125,2.512,2.512,2.512         c1.389,0,2.514-1.125,2.514-2.512v-4.07C79.48,48.235,78.355,47.11,76.967,47.11z"
                   id="path10" /></g></g></g></g></g></g></g></svg>