<?xml version="1.0" encoding="UTF-8" standalone="no"?>
<svg
   xmlns:dc="http://purl.org/dc/elements/1.1/"
   xmlns:cc="http://creativecommons.org/ns#"
   xmlns:rdf="http://www.w3.org/1999/02/22-rdf-syntax-ns#"
   xmlns:svg="http://www.w3.org/2000/svg"
   xmlns="http://www.w3.org/2000/svg"
   xmlns:sodipodi="http://sodipodi.sourceforge.net/DTD/sodipodi-0.dtd"
   xmlns:inkscape="http://www.inkscape.org/namespaces/inkscape"
   version="1.1"
   x="0px"
   y="0px"
   viewBox="0 0 100 125"
   style="enable-background:new 0 0 100 100;"
   xml:space="preserve"
   id="svg20"
   sodipodi:docname="saveforlater.svg"
   inkscape:version="0.92.3 (2405546, 2018-03-11)"><metadata
     id="metadata26"><rdf:RDF><cc:Work
         rdf:about=""><dc:format>image/svg+xml</dc:format><dc:type
           rdf:resource="http://purl.org/dc/dcmitype/StillImage" /></cc:Work></rdf:RDF></metadata><defs
     id="defs24" /><sodipodi:namedview
     pagecolor="#ffffff"
     bordercolor="#666666"
     borderopacity="1"
     objecttolerance="10"
     gridtolerance="10"
     guidetolerance="10"
     inkscape:pageopacity="0"
     inkscape:pageshadow="2"
     inkscape:window-width="640"
     inkscape:window-height="480"
     id="namedview22"
     showgrid="false"
     inkscape:zoom="1.888"
     inkscape:cx="50"
     inkscape:cy="62.5"
     inkscape:window-x="0"
     inkscape:window-y="0"
     inkscape:window-maximized="0"
     inkscape:current-layer="svg20" /><g
     id="g14"><g
       id="g12"><g
         id="g10"><path
           d="M72.6,85.1H27.4c-6.9,0-12.5-5.6-12.5-12.5V32.2c0-0.7,0.2-1.3,0.7-1.9L27.2,16c0.6-0.7,1.4-1.1,2.3-1.1h40.9     c0.9,0,1.7,0.4,2.3,1.1l11.7,14.3c0.4,0.5,0.7,1.2,0.7,1.9v40.4C85.1,79.5,79.5,85.1,72.6,85.1z M20.9,33.3v39.4     c0,3.6,2.9,6.5,6.5,6.5h45.2c3.6,0,6.5-2.9,6.5-6.5V33.3L69,20.9H31L20.9,33.3z"
           id="path2" /><path
           d="M79.7,35.2H20.3c-1.6,0-3-1.3-3-3c0-1.6,1.3-3,3-3h59.4c1.6,0,3,1.3,3,3C82.7,33.8,81.4,35.2,79.7,35.2z"
           id="path4" /><path
           d="M50,73.2c-1.6,0-3-1.3-3-3v-25c0-1.6,1.3-3,3-3c1.6,0,3,1.3,3,3v25C53,71.9,51.6,73.2,50,73.2z"
           id="path6" /><path
           d="M50,73.2c-0.8,0-1.5-0.3-2.1-0.9l-9.5-9.5c-1.2-1.2-1.2-3,0-4.2c1.2-1.2,3-1.2,4.2,0l7.4,7.5l7.4-7.4     c1.2-1.2,3-1.2,4.2,0c1.2,1.2,1.2,3,0,4.2l-9.5,9.5C51.5,72.9,50.8,73.2,50,73.2z"
           id="path8" /></g></g></g></svg>