<?xml version="1.0" encoding="UTF-8" standalone="no"?>
<svg
   xmlns:dc="http://purl.org/dc/elements/1.1/"
   xmlns:cc="http://creativecommons.org/ns#"
   xmlns:rdf="http://www.w3.org/1999/02/22-rdf-syntax-ns#"
   xmlns:svg="http://www.w3.org/2000/svg"
   xmlns="http://www.w3.org/2000/svg"
   xmlns:sodipodi="http://sodipodi.sourceforge.net/DTD/sodipodi-0.dtd"
   xmlns:inkscape="http://www.inkscape.org/namespaces/inkscape"
   version="1.1"
   x="0px"
   y="0px"
   viewBox="0 0 64 80"
   style="enable-background:new 0 0 64 64;"
   xml:space="preserve"
   id="svg34"
   sodipodi:docname="slide.svg"
   inkscape:version="0.92.3 (2405546, 2018-03-11)"><metadata
     id="metadata40"><rdf:RDF><cc:Work
         rdf:about=""><dc:format>image/svg+xml</dc:format><dc:type
           rdf:resource="http://purl.org/dc/dcmitype/StillImage" /></cc:Work></rdf:RDF></metadata><defs
     id="defs38" /><sodipodi:namedview
     pagecolor="#ffffff"
     bordercolor="#666666"
     borderopacity="1"
     objecttolerance="10"
     gridtolerance="10"
     guidetolerance="10"
     inkscape:pageopacity="0"
     inkscape:pageshadow="2"
     inkscape:window-width="640"
     inkscape:window-height="480"
     id="namedview36"
     showgrid="false"
     inkscape:zoom="2.95"
     inkscape:cx="32"
     inkscape:cy="40"
     inkscape:window-x="0"
     inkscape:window-y="0"
     inkscape:window-maximized="0"
     inkscape:current-layer="svg34" /><g
     id="g28"><path
       d="M47,19H7c-1.103,0-2,0.897-2,2v22c0,1.103,0.897,2,2,2h40c1.103,0,2-0.897,2-2V21C49,19.897,48.103,19,47,19z M22.382,43   H7.618l3.935-7.87C12.21,33.816,13.53,33,15,33s2.79,0.816,3.447,2.13L22.382,43z M21.09,35.943l1.793-4.782   C23.367,29.868,24.62,29,26,29s2.633,0.868,3.117,2.16L33.557,43h-8.939L21.09,35.943z M33.413,36.92L36,29.162   C36.432,27.869,37.637,27,39,27s2.568,0.869,3,2.163L46.613,43h-10.92L33.413,36.92z M47,21l0.001,16.842l-3.104-9.312   C43.193,26.418,41.226,25,39,25s-4.193,1.418-4.896,3.53l-1.806,5.415l-1.308-3.487C30.214,28.39,28.209,27,26,27   s-4.214,1.39-4.99,3.458l-1.167,3.111C18.763,31.969,16.97,31,15,31c-2.231,0-4.238,1.24-5.236,3.236L7,39.763V21H47z"
       id="path2" /><rect
       x="40.203"
       y="35.257"
       transform="matrix(0.9486 -0.3165 0.3165 0.9486 -9.3577 14.9055)"
       width="1.999"
       height="2"
       id="rect4" /><rect
       x="41.467"
       y="39.051"
       transform="matrix(0.9486 -0.3165 0.3165 0.9486 -10.4937 15.5008)"
       width="1.999"
       height="2"
       id="rect6" /><rect
       x="38.937"
       y="31.462"
       transform="matrix(0.9486 -0.3165 0.3165 0.9486 -8.2216 14.3098)"
       width="1.999"
       height="2"
       id="rect8" /><rect
       x="9"
       y="23"
       width="2"
       height="2"
       id="rect10" /><rect
       x="13"
       y="23"
       width="14"
       height="2"
       id="rect12" /><rect
       x="9"
       y="27"
       width="2"
       height="2"
       id="rect14" /><rect
       x="13"
       y="27"
       width="6"
       height="2"
       id="rect16" /><path
       d="M52,1h-1v12h12v-1C63,6.346,57.654,1,52,1z M53,11V3.071c3.843,0.54,7.39,4.086,7.93,7.929H53z"
       id="path18" /><path
       d="M49,5h-1c-6.593,0-11.834,4.155-12.823,10H33V1h-6v14h-2V5h-6v10h-2V9h-6v6H6c-2.757,0-5,2.243-5,5v28c0,2.757,2.243,5,5,5   h12.382l-2,4H13c-1.654,0-3,1.346-3,3s1.346,3,3,3h28c1.654,0,3-1.346,3-3s-1.346-3-3-3h-3.382l-2-4H38h6h4c2.757,0,5-2.243,5-5   V27.351c3.766-2.25,6-6.442,6-11.351v-1H49V5z M47,7.036V15h-9.794C38.107,10.529,41.937,7.4,47,7.036z M29,3h2v12h-2V3z M21,7h2v8   h-2V7z M13,11h2v4h-2V11z M42,60c0,0.551-0.448,1-1,1H13c-0.552,0-1-0.449-1-1s0.448-1,1-1h28C41.552,59,42,59.449,42,60z    M35.382,57H18.618l2-4h12.764L35.382,57z M38,51c-0.552,0-1-0.449-1-1s0.448-1,1-1h6c0.552,0,1,0.449,1,1s-0.448,1-1,1H38z M51,48   c0,1.654-1.346,3-3,3h-1.184C46.928,50.686,47,50.352,47,50c0-1.654-1.346-3-3-3h-6c-1.654,0-3,1.346-3,3   c0,0.352,0.072,0.686,0.184,1H6c-1.654,0-3-1.346-3-3V20c0-1.654,1.346-3,3-3h41h1c1.654,0,3,1.346,3,3V48z M53,24.91V20   c0-1.13-0.391-2.162-1.026-3h4.989C56.725,20.285,55.294,23.093,53,24.91z"
       id="path20" /><rect
       x="7"
       y="47"
       width="2"
       height="2"
       id="rect22" /><rect
       x="11"
       y="47"
       width="2"
       height="2"
       id="rect24" /><rect
       x="15"
       y="47"
       width="2"
       height="2"
       id="rect26" /></g></svg>