<?xml version="1.0" encoding="UTF-8" standalone="no"?>
<svg
   xmlns:i="http://ns.adobe.com/AdobeIllustrator/10.0/"
   xmlns:dc="http://purl.org/dc/elements/1.1/"
   xmlns:cc="http://creativecommons.org/ns#"
   xmlns:rdf="http://www.w3.org/1999/02/22-rdf-syntax-ns#"
   xmlns:svg="http://www.w3.org/2000/svg"
   xmlns="http://www.w3.org/2000/svg"
   xmlns:sodipodi="http://sodipodi.sourceforge.net/DTD/sodipodi-0.dtd"
   xmlns:inkscape="http://www.inkscape.org/namespaces/inkscape"
   version="1.1"
   x="0px"
   y="0px"
   viewBox="0 0 100 125"
   style="enable-background:new 0 0 100 100;"
   xml:space="preserve"
   id="svg40"
   sodipodi:docname="tasks.svg"
   inkscape:version="0.92.3 (2405546, 2018-03-11)"><metadata
     id="metadata46"><rdf:RDF><cc:Work
         rdf:about=""><dc:format>image/svg+xml</dc:format><dc:type
           rdf:resource="http://purl.org/dc/dcmitype/StillImage" /></cc:Work></rdf:RDF></metadata><defs
     id="defs44" /><sodipodi:namedview
     pagecolor="#ffffff"
     bordercolor="#666666"
     borderopacity="1"
     objecttolerance="10"
     gridtolerance="10"
     guidetolerance="10"
     inkscape:pageopacity="0"
     inkscape:pageshadow="2"
     inkscape:window-width="1881"
     inkscape:window-height="1057"
     id="namedview42"
     showgrid="false"
     inkscape:zoom="1.888"
     inkscape:cx="50"
     inkscape:cy="62.5"
     inkscape:window-x="0"
     inkscape:window-y="0"
     inkscape:window-maximized="0"
     inkscape:current-layer="svg40" /><switch
     id="switch34"><foreignObject
       requiredExtensions="http://ns.adobe.com/AdobeIllustrator/10.0/"
       x="0"
       y="0"
       width="1"
       height="1" /><g
       i:extraneous="self"
       id="g32"><g
         id="g10"><path
           d="M5273.1,2400.1v-2c0-2.8-5-4-9.7-4s-9.7,1.3-9.7,4v2c0,1.8,0.7,3.6,2,4.9l5,4.9c0.3,0.3,0.4,0.6,0.4,1v6.4     c0,0.4,0.2,0.7,0.6,0.8l2.9,0.9c0.5,0.1,1-0.2,1-0.8v-7.2c0-0.4,0.2-0.7,0.4-1l5.1-5C5272.4,2403.7,5273.1,2401.9,5273.1,2400.1z      M5263.4,2400c-4.8,0-7.4-1.3-7.5-1.8v0c0.1-0.5,2.7-1.8,7.5-1.8c4.8,0,7.3,1.3,7.5,1.8C5270.7,2398.7,5268.2,2400,5263.4,2400z"
           id="path2" /><path
           d="M5268.4,2410.3c-0.6,0-1,0.4-1,1c0,0.6,0.4,1,1,1h4.3c0.6,0,1-0.4,1-1c0-0.6-0.4-1-1-1H5268.4z"
           id="path4" /><path
           d="M5272.7,2413.7h-4.3c-0.6,0-1,0.4-1,1c0,0.6,0.4,1,1,1h4.3c0.6,0,1-0.4,1-1C5273.7,2414.1,5273.3,2413.7,5272.7,2413.7z"
           id="path6" /><path
           d="M5272.7,2417h-4.3c-0.6,0-1,0.4-1,1c0,0.6,0.4,1,1,1h4.3c0.6,0,1-0.4,1-1C5273.7,2417.5,5273.3,2417,5272.7,2417z"
           id="path8" /></g><g
         id="g30"><path
           d="M23.5,36.6C16,36.6,10,42.6,10,50s6,13.4,13.4,13.4c7.4,0,13.4-6,13.4-13.4S30.9,36.6,23.5,36.6z M23.5,58.1     c-4.5,0-8.1-3.6-8.1-8.1s3.6-8.1,8.1-8.1c4.5,0,8.1,3.6,8.1,8.1S27.9,58.1,23.5,58.1z"
           id="path12" /><path
           d="M23.5,70.6c-7.4,0-13.4,6-13.4,13.4c0,7.4,6,13.4,13.4,13.4c7.4,0,13.4-6,13.4-13.4C36.9,76.6,30.9,70.6,23.5,70.6z      M23.5,92.1c-4.5,0-8.1-3.6-8.1-8.1S19,76,23.5,76c4.5,0,8.1,3.6,8.1,8.1S27.9,92.1,23.5,92.1z"
           id="path14" /><path
           d="M23.5,2.5C16,2.5,10,8.5,10,15.9c0,7.4,6,13.4,13.4,13.4c7.4,0,13.4-6,13.4-13.4C36.9,8.5,30.9,2.5,23.5,2.5z M29.9,14.2     l-6.6,6.6c-0.4,0.4-0.9,0.6-1.5,0.6c-0.6,0-1.1-0.2-1.5-0.6L17,17.4c-0.8-0.8-0.8-2.2,0-3c0.8-0.8,2.2-0.8,3,0l1.8,1.8l5-5     c0.8-0.8,2.2-0.8,3,0C30.7,12,30.7,13.3,29.9,14.2z"
           id="path16" /><path
           d="M46.1,12.8h41.2c1.5,0,2.7-1.2,2.7-2.7s-1.2-2.7-2.7-2.7H46.1c-1.5,0-2.7,1.2-2.7,2.7S44.6,12.8,46.1,12.8z"
           id="path18" /><path
           d="M46.1,24.4h26c1.5,0,2.7-1.2,2.7-2.7s-1.2-2.7-2.7-2.7h-26c-1.5,0-2.7,1.2-2.7,2.7S44.6,24.4,46.1,24.4z"
           id="path20" /><path
           d="M87.3,41.5H46.1c-1.5,0-2.7,1.2-2.7,2.7s1.2,2.7,2.7,2.7h41.2c1.5,0,2.7-1.2,2.7-2.7S88.8,41.5,87.3,41.5z"
           id="path22" /><path
           d="M46.1,58.5h26c1.5,0,2.7-1.2,2.7-2.7s-1.2-2.7-2.7-2.7h-26c-1.5,0-2.7,1.2-2.7,2.7S44.6,58.5,46.1,58.5z"
           id="path24" /><path
           d="M87.3,75.6H46.1c-1.5,0-2.7,1.2-2.7,2.7c0,1.5,1.2,2.7,2.7,2.7h41.2c1.5,0,2.7-1.2,2.7-2.7C90,76.8,88.8,75.6,87.3,75.6z     "
           id="path26" /><path
           d="M72.1,87.2h-26c-1.5,0-2.7,1.2-2.7,2.7c0,1.5,1.2,2.7,2.7,2.7h26c1.5,0,2.7-1.2,2.7-2.7C74.8,88.4,73.6,87.2,72.1,87.2z"
           id="path28" /></g></g></switch></svg>