<?xml version="1.0" encoding="UTF-8" standalone="no"?>
<svg
   xmlns:dc="http://purl.org/dc/elements/1.1/"
   xmlns:cc="http://creativecommons.org/ns#"
   xmlns:rdf="http://www.w3.org/1999/02/22-rdf-syntax-ns#"
   xmlns:svg="http://www.w3.org/2000/svg"
   xmlns="http://www.w3.org/2000/svg"
   xmlns:sodipodi="http://sodipodi.sourceforge.net/DTD/sodipodi-0.dtd"
   xmlns:inkscape="http://www.inkscape.org/namespaces/inkscape"
   version="1.1"
   x="0px"
   y="0px"
   viewBox="0 0 76 95"
   enable-background="new 0 0 76 76"
   xml:space="preserve"
   id="svg28"
   sodipodi:docname="videoconf.svg"
   inkscape:version="0.92.3 (2405546, 2018-03-11)"><metadata
     id="metadata34"><rdf:RDF><cc:Work
         rdf:about=""><dc:format>image/svg+xml</dc:format><dc:type
           rdf:resource="http://purl.org/dc/dcmitype/StillImage" /></cc:Work></rdf:RDF></metadata><defs
     id="defs32" /><sodipodi:namedview
     pagecolor="#ffffff"
     bordercolor="#666666"
     borderopacity="1"
     objecttolerance="10"
     gridtolerance="10"
     guidetolerance="10"
     inkscape:pageopacity="0"
     inkscape:pageshadow="2"
     inkscape:window-width="640"
     inkscape:window-height="480"
     id="namedview30"
     showgrid="false"
     inkscape:zoom="2.4842105"
     inkscape:cx="38"
     inkscape:cy="47.5"
     inkscape:window-x="0"
     inkscape:window-y="0"
     inkscape:window-maximized="0"
     inkscape:current-layer="svg28" /><g
     id="g22"><path
       d="M45.6750183,59.2300415H30.3249817L25.4250183,65c-0.7700195,0.9100342-0.9400024,2.1600342-0.4400024,3.2399902   C25.4950256,69.3300171,26.5450134,70,27.7450256,70h20.5099487c1.2000122,0,2.25-0.6699829,2.7600098-1.7600098   c0.5-1.0799561,0.3300171-2.3299561-0.4400024-3.2399902L45.6750183,59.2300415z"
       id="path2" /><path
       d="M21.0558777,20.600647c2.3000488,0,4.1646729-2.6454468,4.1646729-4.9455566   c0-2.3000488-1.864624-4.1646118-4.1646729-4.1646118c-2.3001099,0-4.1646729,1.864563-4.1646729,4.1646118   C16.8912048,17.9552002,18.7557678,20.600647,21.0558777,20.600647z"
       id="path4" /><path
       d="M24.2649841,21.2800293H17.855011c-2.5800171,0-4.7399902,1.8200073-5.25,4.2399902v0.1500244h16.9299927   C29.0849915,23.1700439,26.894989,21.2800293,24.2649841,21.2800293z"
       id="path6" /><path
       d="M21.0558777,40.2659912c2.3000488,0,4.1646729-2.6454468,4.1646729-4.9454956   c0-2.3001099-1.864624-4.1646729-4.1646729-4.1646729c-2.3001099,0-4.1646729,1.864563-4.1646729,4.1646729   C16.8912048,37.6205444,18.7557678,40.2659912,21.0558777,40.2659912z"
       id="path8" /><path
       d="M29.6238098,46.3096313c0-2.961792-2.401062-5.362854-5.362854-5.362854h-6.4101563   c-2.961792,0-5.362854,2.401062-5.362854,5.362854v1.0244141h17.1358643V46.3096313z"
       id="path10" /><path
       d="M51.4513855,22.5064087c2.6639404,0,4.8235474-3.9030762,4.8235474-6.5670166s-2.1596069-4.8235474-4.8235474-4.8235474   s-4.8235474,2.1596069-4.8235474,4.8235474S48.7874451,22.5064087,51.4513855,22.5064087z"
       id="path12" /><path
       d="M60.535675,30.585083c0-3.2103882-2.602478-5.8128662-5.8128662-5.8128662l-3.2426147,3.3562622l-3.3002319-3.3562622   c-3.2103882,0-5.8129272,2.602478-5.8129272,5.8128662v1.6312866H60.535675V30.585083z"
       id="path14" /><path
       d="M69.394989,9.0800171c0-1.6799927-1.3599854-3.039978-3.039978-3.039978H35.5049744V6H9.605011   c-1.6600342,0-3,1.3500366-3,3v45.1900024c0,1.6799927,1.3599854,3.0400391,3.039978,3.0400391h56.710022   c1.6799927,0,3.039978-1.3600464,3.039978-3.0400391V9.0800171z M33.5049744,49.0300293H10.605011V29.6700439h22.8999634   V49.0300293z M33.5049744,27.6700439H10.605011V10.0400391h22.8999634V27.6700439z M38.7049866,54.1000366   c-0.3729858,0.3729858-1.0119019,0.3980713-1.4099731,0c-0.3862305-0.3862915-0.3864746-1.0336304,0-1.4200439   c0.3699951-0.3699951,1.039978-0.3699951,1.4099731,0C39.1038513,53.0788574,39.1040344,53.7009888,38.7049866,54.1000366z    M65.394989,49.0300293H35.5049744V10.0400391H65.394989V49.0300293z"
       id="path16" /><rect
       x="39.6569214"
       y="36.3973389"
       width="23.5888672"
       height="2"
       id="rect18" /><polygon
       points="50.0153503,45.7205811 53.9821472,43.6951904 50.0153503,41.6844482  "
       id="polygon20" /></g></svg>